Use of railtrails
…
Installation

You can install railtrails with the install.packages() function.

install.packages("railtrails")

Loading the data

Here is how to load the data:

railtrails <- railtrails::railtrails
railtrails

## # A tibble: 3,846 x 11
##    state name  distance surface category mean_review description n_reviews
##    <chr> <chr>    <dbl> <chr>   <chr>          <int> <chr>           <int>
##  1 AK    Chas…     14   Dirt, … Rail-Tr…           4 "Though cl…         1
##  2 AK    Tony…     11   Asphalt Rail-Tr…           5 "The Tony …         5
##  3 AK    Bird…     13   Asphalt Rail-Tr…           5 "The Bird …         3
##  4 AK    Camp…      7.5 Asphal… Greenwa…           5 "The Campb…         3
##  5 AK    Goos…      1.5 Asphal… Greenwa…           0 "The sceni…         0
##  6 AK    Home…      4   Asphalt Greenwa…           5 "On the so…         1
##  7 AK    Lani…      3.9 Asphal… Greenwa…           3 "The Lanie…         1
##  8 AK    Palm…      6.1 Gravel  Rail-Tr…           0 "As its na…         0
##  9 AK    Ship…      2.6 Asphalt Rail-Tr…           4 "Ship Cree…         1
## 10 AL    Chie…     33   Asphalt Rail-Tr…           5 "In northe…        77
## # ... with 3,836 more rows, and 3 more variables: raw_reviews <list>,
## #   lat <dbl>, lng <dbl>

The latitude and longitude are for the trailhead and are from Google Maps searches of the trail’s name (and trail’s state). Around 94% of the trails are associated with latitude and longitude information.

See more information about the variables with ?railtrails.

“Unnesting” trail reviews

You may want to “unnest” the list-column with reviews in the following way:

library(tidyr)
d <- railtrails::railtrails
d <- d %>% unnest(raw_reviews)
d

## # A tibble: 24,413 x 11
##    state name  distance surface category mean_review description n_reviews
##    <chr> <chr>    <dbl> <chr>   <chr>          <int> <chr>           <int>
##  1 AK    Chas…     14   Dirt, … Rail-Tr…           4 "Though cl…         1
##  2 AK    Tony…     11   Asphalt Rail-Tr…           5 "The Tony …         5
##  3 AK    Tony…     11   Asphalt Rail-Tr…           5 "The Tony …         5
##  4 AK    Tony…     11   Asphalt Rail-Tr…           5 "The Tony …         5
##  5 AK    Tony…     11   Asphalt Rail-Tr…           5 "The Tony …         5
##  6 AK    Tony…     11   Asphalt Rail-Tr…           5 "The Tony …         5
##  7 AK    Bird…     13   Asphalt Rail-Tr…           5 "The Bird …         3
##  8 AK    Bird…     13   Asphalt Rail-Tr…           5 "The Bird …         3
##  9 AK    Bird…     13   Asphalt Rail-Tr…           5 "The Bird …         3
## 10 AK    Camp…      7.5 Asphal… Greenwa…           5 "The Campb…         3
## # ... with 24,403 more rows, and 3 more variables: lat <dbl>, lng <dbl>,
## #   raw_reviews <int>
…
